Chapter 10 Data Import | R for Data Science Companion Book
…
The above will print two outputs:

the column specification generated by looking at the first 1000 rows,

and the first five parsing failures.

You can pull out the failures using problems() and oberve them thorughly as shown below. A good strategy is to work column by column until there are no problems remaining. Here we can see that there are a lot of parsing problems with the y column.

problems(challenge)

## # A tibble: 1,000 x 5
##      row col   expected       actual   file                                     
##    <int> <chr> <chr>          <chr>    <chr>                                    
##  1  1001 y     1/0/T/F/TRUE/… 2015-01… '/Library/Frameworks/R.framework/Version…
##  2  1002 y     1/0/T/F/TRUE/… 2018-05… '/Library/Frameworks/R.framework/Version…
##  3  1003 y     1/0/T/F/TRUE/… 2015-09… '/Library/Frameworks/R.framework/Version…
##  4  1004 y     1/0/T/F/TRUE/… 2012-11… '/Library/Frameworks/R.framework/Version…
##  5  1005 y     1/0/T/F/TRUE/… 2020-01… '/Library/Frameworks/R.framework/Version…
##  6  1006 y     1/0/T/F/TRUE/… 2016-04… '/Library/Frameworks/R.framework/Version…
##  7  1007 y     1/0/T/F/TRUE/… 2011-05… '/Library/Frameworks/R.framework/Version…
##  8  1008 y     1/0/T/F/TRUE/… 2020-07… '/Library/Frameworks/R.framework/Version…
##  9  1009 y     1/0/T/F/TRUE/… 2011-04… '/Library/Frameworks/R.framework/Version…
## 10  1010 y     1/0/T/F/TRUE/… 2010-05… '/Library/Frameworks/R.framework/Version…
## # … with 990 more rows
…
challenge3 <- read_csv(readr_example("challenge.csv"), 
  col_types = cols(.default = col_character())
)

challenge3 <- type_convert(challenge3)

## Parsed with column specification:
## cols(
##   x = col_double(),
##   y = col_date(format = "")
## )

challenge3

## # A tibble: 2,000 x 2
##        x y         
##    <dbl> <date>    
##  1   404 NA        
##  2  4172 NA        
##  3  3004 NA        
##  4   787 NA        
##  5    37 NA        
##  6  2332 NA        
##  7  2489 NA        
##  8  1449 NA        
##  9  3665 NA        
## 10  3863 NA        
## # … with 1,990 more rows
…
probelem with write_csv

When we save with CSV, the type of information is lost, as shown in example below:

challenge4 <- glimpse(challenge3)

## Rows: 2,000
## Columns: 2
## $ x <dbl> 404, 4172, 3004, 787, 37, 2332, 2489, 1449, 3665, 3863, 4374, 875, …
## $ y <date> NA, NA, NA, NA, NA, NA, NA, NA, NA, NA, NA, NA, NA, NA, NA, NA, NA…

challenge4

## # A tibble: 2,000 x 2
##        x y         
##    <dbl> <date>    
##  1   404 NA        
##  2  4172 NA        
##  3  3004 NA        
##  4   787 NA        
##  5    37 NA        
##  6  2332 NA        
##  7  2489 NA        
##  8  1449 NA        
##  9  3665 NA        
## 10  3863 NA        
## # … with 1,990 more rows
…
## Warning: 1000 parsing failures.
##  row col           expected     actual              file
## 1001   y 1/0/T/F/TRUE/FALSE 2015-01-16 'challenge-5.csv'
## 1002   y 1/0/T/F/TRUE/FALSE 2018-05-18 'challenge-5.csv'
## 1003   y 1/0/T/F/TRUE/FALSE 2015-09-05 'challenge-5.csv'
## 1004   y 1/0/T/F/TRUE/FALSE 2012-11-28 'challenge-5.csv'
## 1005   y 1/0/T/F/TRUE/FALSE 2020-01-13 'challenge-5.csv'
## .... ... .................. .......... .................
## See problems(...) for more details.

## # A tibble: 2,000 x 2
##        x y    
##    <dbl> <lgl>
##  1   404 NA   
##  2  4172 NA   
##  3  3004 NA   
##  4   787 NA   
##  5    37 NA   
##  6  2332 NA   
##  7  2489 NA   
##  8  1449 NA   
##  9  3665 NA   
## 10  3863 NA   
## # … with 1,990 more rows

It turns out that the column is now logical not date as it used to be. Such behaviour makes CSVs a little unreliable for caching interim results—you need to recreate the column specification every time you load in. There are two alternatives:

write_rds() and read_rds() are uniform wrappers around the base functions readRDS() and saveRDS(). These store data in R’s custom binary format called RDS:

Example of using write_rds() and read_rds():

write_rds(challenge3, "challenge.rds")
read_rds("challenge.rds")

## # A tibble: 2,000 x 2
##        x y         
##    <dbl> <date>    
##  1   404 NA        
##  2  4172 NA        
##  3  3004 NA        
##  4   787 NA        
##  5    37 NA        
##  6  2332 NA        
##  7  2489 NA        
##  8  1449 NA        
##  9  3665 NA        
## 10  3863 NA        
## # … with 1,990 more rows

The feather package implements a fast binary file format that can be shared across programming languages

Example of using feather package and all the column types remain unchange:

library(feather)
write_feather(challenge3, "challenge.feather")
read_feather("challenge.feather")

## # A tibble: 2,000 x 2
##        x y         
##    <dbl> <date>    
##  1   404 NA        
##  2  4172 NA        
##  3  3004 NA        
##  4   787 NA        
##  5    37 NA        
##  6  2332 NA        
##  7  2489 NA        
##  8  1449 NA        
##  9  3665 NA        
## 10  3863 NA        
## # … with 1,990 more rows
…
