Chapter 4 TDF-IDF | Research Book
…
We can use tidy data principle, to perform tf-idf analysis to quantify how important various terms are in a document that is part of a collection.

3.1 Term frequency in Jane Austen’s novels

Let us find term frequency and then tf-idf of Jane Austen novels.

book_words <- austen_books() %>%
  unnest_tokens(word, text) %>%
  count(book, word, sort = TRUE)

book_words

## # A tibble: 40,379 x 3
##    book              word      n
##    <fct>             <chr> <int>
##  1 Mansfield Park    the    6206
##  2 Mansfield Park    to     5475
##  3 Mansfield Park    and    5438
##  4 Emma              to     5239
##  5 Emma              the    5201
##  6 Emma              and    4896
##  7 Mansfield Park    of     4778
##  8 Pride & Prejudice the    4331
##  9 Emma              of     4291
## 10 Pride & Prejudice to     4162
## # … with 40,369 more rows
…
book_words <- left_join(book_words, total_words)

## Joining, by = "book"

book_words

## # A tibble: 40,379 x 4
##    book              word      n  total
##    <fct>             <chr> <int>  <int>
##  1 Mansfield Park    the    6206 160460
##  2 Mansfield Park    to     5475 160460
##  3 Mansfield Park    and    5438 160460
##  4 Emma              to     5239 160996
##  5 Emma              the    5201 160996
##  6 Emma              and    4896 160996
##  7 Mansfield Park    of     4778 160460
##  8 Pride & Prejudice the    4331 122204
##  9 Emma              of     4291 160996
## 10 Pride & Prejudice to     4162 122204
## # … with 40,369 more rows
…
Term frequency in the table:

book_words <- book_words %>%  mutate(term_fre=  n/total)
book_words

## # A tibble: 40,379 x 5
##    book              word      n  total term_fre
##    <fct>             <chr> <int>  <int>    <dbl>
##  1 Mansfield Park    the    6206 160460   0.0387
##  2 Mansfield Park    to     5475 160460   0.0341
##  3 Mansfield Park    and    5438 160460   0.0339
##  4 Emma              to     5239 160996   0.0325
##  5 Emma              the    5201 160996   0.0323
##  6 Emma              and    4896 160996   0.0304
##  7 Mansfield Park    of     4778 160460   0.0298
##  8 Pride & Prejudice the    4331 122204   0.0354
##  9 Emma              of     4291 160996   0.0267
## 10 Pride & Prejudice to     4162 122204   0.0341
## # … with 40,369 more rows
…
What is astonishing is that this law holds true for almost all huge natural language corpus’s out there.For eg : Books,Religious scripts even temperature trends over past years etc. If you have made this far you might be wondering what makes this simple mathematical law based on language patterns so special.Actually significant part of research done by mankind shows that zipf’s law appear almost everywhere

I will apply Zips Law in Hausa Language here:

Now, we can examine Zipf’s law for Jane Austen’s novels with just a few lines of dplyr functions.

freq_by_rank <- book_words %>% 
  group_by(book) %>% 
  mutate(rank = row_number(), 
         `term frequency` = n/total)

freq_by_rank

## # A tibble: 40,379 x 7
## # Groups:   book [6]
##    book              word      n  total term_fre  rank `term frequency`
##    <fct>             <chr> <int>  <int>    <dbl> <int>            <dbl>
##  1 Mansfield Park    the    6206 160460   0.0387     1           0.0387
##  2 Mansfield Park    to     5475 160460   0.0341     2           0.0341
##  3 Mansfield Park    and    5438 160460   0.0339     3           0.0339
##  4 Emma              to     5239 160996   0.0325     1           0.0325
##  5 Emma              the    5201 160996   0.0323     2           0.0323
##  6 Emma              and    4896 160996   0.0304     3           0.0304
##  7 Mansfield Park    of     4778 160460   0.0298     4           0.0298
##  8 Pride & Prejudice the    4331 122204   0.0354     1           0.0354
##  9 Emma              of     4291 160996   0.0267     4           0.0267
## 10 Pride & Prejudice to     4162 122204   0.0341     2           0.0341
## # … with 40,369 more rows
…
a tidy text dataset as input with one row per token (term), per document.

One column (word here) contains the terms/tokens,

one column contains the documents (book in this case), and

the last necessary column contains the counts, how many times each document contains each term (n in this example).

book_words <- book_words %>%
  bind_tf_idf(word, book, n)

book_words

## # A tibble: 40,379 x 8
##    book              word      n  total term_fre     tf   idf tf_idf
##    <fct>             <chr> <int>  <int>    <dbl>  <dbl> <dbl>  <dbl>
##  1 Mansfield Park    the    6206 160460   0.0387 0.0387     0      0
##  2 Mansfield Park    to     5475 160460   0.0341 0.0341     0      0
##  3 Mansfield Park    and    5438 160460   0.0339 0.0339     0      0
##  4 Emma              to     5239 160996   0.0325 0.0325     0      0
##  5 Emma              the    5201 160996   0.0323 0.0323     0      0
##  6 Emma              and    4896 160996   0.0304 0.0304     0      0
##  7 Mansfield Park    of     4778 160460   0.0298 0.0298     0      0
##  8 Pride & Prejudice the    4331 122204   0.0354 0.0354     0      0
##  9 Emma              of     4291 160996   0.0267 0.0267     0      0
## 10 Pride & Prejudice to     4162 122204   0.0341 0.0341     0      0
## # … with 40,369 more rows

From the above table, we can see that the tf-idf are zero for these extremely common words. So the idf term (which will then be the natural log of 1) is zero.

The inverse document frequency (and thus tf-idf) is very low (near zero) for words that occur in many of the documents in a collection; this is how this approach decreases the weight for common words.

The inverse document frequency will be a higher number for words that occur in fewer of the documents in the collection.

Let’s look at terms with high tf-idf in Jane Austen’s works.

book_words %>%
  select(-total) %>%
  arrange(desc(tf_idf))

## # A tibble: 40,379 x 7
##    book                word          n term_fre      tf   idf  tf_idf
##    <fct>               <chr>     <int>    <dbl>   <dbl> <dbl>   <dbl>
##  1 Sense & Sensibility elinor      623  0.00519 0.00519  1.79 0.00931
##  2 Sense & Sensibility marianne    492  0.00410 0.00410  1.79 0.00735
##  3 Mansfield Park      crawford    493  0.00307 0.00307  1.79 0.00551
##  4 Pride & Prejudice   darcy       373  0.00305 0.00305  1.79 0.00547
##  5 Persuasion          elliot      254  0.00304 0.00304  1.79 0.00544
##  6 Emma                emma        786  0.00488 0.00488  1.10 0.00536
##  7 Northanger Abbey    tilney      196  0.00252 0.00252  1.79 0.00452
##  8 Emma                weston      389  0.00242 0.00242  1.79 0.00433
##  9 Pride & Prejudice   bennet      294  0.00241 0.00241  1.79 0.00431
## 10 Persuasion          wentworth   191  0.00228 0.00228  1.79 0.00409
## # … with 40,369 more rows
…
physics <- gutenberg_download(c(37729, 14725, 13476, 30155), 
                              meta_fields = "author")

## Determining mirror for Project Gutenberg from http://www.gutenberg.org/robot/harvest

## Using mirror http://aleph.gutenberg.org

Let use unnest the text

physics_words <-  physics %>% 
  unnest_tokens(word , text) %>% 
  count(author, word, sort = TRUE)
physics_words

## # A tibble: 12,671 x 3
##    author              word      n
##    <chr>               <chr> <int>
##  1 Galilei, Galileo    the    3760
##  2 Tesla, Nikola       the    3604
##  3 Huygens, Christiaan the    3553
##  4 Einstein, Albert    the    2993
##  5 Galilei, Galileo    of     2049
##  6 Einstein, Albert    of     2028
##  7 Tesla, Nikola       of     1737
##  8 Huygens, Christiaan of     1708
##  9 Huygens, Christiaan to     1207
## 10 Tesla, Nikola       a      1176
## # … with 12,661 more rows

Let’s go ahead and calculate tf-idf, then visualize the high tf-idf words

plot_physics <-  physics_words %>% 
   bind_tf_idf(word, author , n) %>%  # author here is the document, word = tokens, n = number of each token
   mutate(word = fct_reorder(word, tf_idf)) %>% 
    mutate(author = factor(author, levels = c("Galilei, Galileo",
                                            "Huygens, Christiaan", 
                                            "Tesla, Nikola",
                                            "Einstein, Albert")))

plot_physics

## # A tibble: 12,671 x 6
##    author              word      n     tf   idf tf_idf
##    <fct>               <fct> <int>  <dbl> <dbl>  <dbl>
##  1 Galilei, Galileo    the    3760 0.0935     0      0
##  2 Tesla, Nikola       the    3604 0.0913     0      0
##  3 Huygens, Christiaan the    3553 0.0928     0      0
##  4 Einstein, Albert    the    2993 0.0952     0      0
##  5 Galilei, Galileo    of     2049 0.0510     0      0
##  6 Einstein, Albert    of     2028 0.0645     0      0
##  7 Tesla, Nikola       of     1737 0.0440     0      0
##  8 Huygens, Christiaan of     1708 0.0446     0      0
##  9 Huygens, Christiaan to     1207 0.0315     0      0
## 10 Tesla, Nikola       a      1176 0.0298     0      0
## # … with 12,661 more rows
…
Some cleaning up of the text may be in order. Also notice that there are separate “co” and “ordinate” items in the high tf-idf words for the Einstein text; the unnest_tokens() function separates around punctuation like hyphens by default. Notice that the tf-idf scores for “co” and “ordinate” are close to same!

Again,“AB”, “RC”, and so forth are names of rays, circles, angles, and so forth for Huygens.

physics %>% 
  filter(str_detect(text, "RC")) %>% 
  select(text)

## # A tibble: 44 x 1
##    text                                                                  
##    <chr>                                                                 
##  1 line RC, parallel and equal to AB, to be a portion of a wave of light,
##  2 represents the partial wave coming from the point A, after the wave RC
##  3 be the propagation of the wave RC which fell on AB, and would be the  
##  4 transparent body; seeing that the wave RC, having come to the aperture
##  5 incident rays. Let there be such a ray RC falling upon the surface    
##  6 CK. Make CO perpendicular to RC, and across the angle KCO adjust OK,  
##  7 the required refraction of the ray RC. The demonstration of this is,  
##  8 explaining ordinary refraction. For the refraction of the ray RC is   
##  9 29. Now as we have found CI the refraction of the ray RC, similarly   
## 10 the ray _r_C is inclined equally with RC, the line C_d_ will          
## # … with 34 more rows
…
