Chapter 3 The tidy text format | Research Book
…
By default, unnest_tokens() converts the tokens to lowercase, which makes them easier to compare or combine with other datasets. (Use the to_lower = FALSE argument to turn off this behavior).

Examples of using the unnest functions:

library(janeaustenr)

d <- tibble(txt = prideprejudice)

3.0.1 Sentences

d %>%
  unnest_tokens(sentence, txt, token = "sentences")

## # A tibble: 7,066 x 1
##    sentence                                                                                  
##    <chr>                                                                                     
##  1 "pride and prejudice  by jane austen    chapter 1   it is a truth universally acknowledge…
##  2 "however little known the feelings or views of such a man may be on his first entering a …
##  3 "\"my dear mr."                                                                           
##  4 "bennet,\" said his lady to him one day, \"have you heard that netherfield park is let at…
##  5 "mr."                                                                                     
##  6 "bennet replied that he had not."                                                         
##  7 "\"but it is,\" returned she; \"for mrs."                                                 
##  8 "long has just been here, and she told me all about it.\""                                
##  9 "mr."                                                                                     
## 10 "bennet made no answer."                                                                  
## # … with 7,056 more rows

3.0.2 Word

d %>%
  unnest_tokens(word, txt)

## # A tibble: 122,204 x 1
##    word     
##    <chr>    
##  1 pride    
##  2 and      
##  3 prejudice
##  4 by       
##  5 jane     
##  6 austen   
##  7 chapter  
##  8 1        
##  9 it       
## 10 is       
## # … with 122,194 more rows
…
d %>%
  unnest_tokens(chapter, txt, token = "regex", pattern = "Chapter [\\\\d]")

## # A tibble: 1 x 1
##   chapter                                                                                    
##   <chr>                                                                                      
## 1 "pride and prejudice\n\nby jane austen\n\n\n\nchapter 1\n\n\nit is a truth universally ack…

3.0.4 By n-gram

d %>%
  unnest_tokens(ngram, txt, token = "ngrams", n = 2)

## # A tibble: 122,203 x 1
##    ngram         
##    <chr>         
##  1 pride and     
##  2 and prejudice 
##  3 prejudice by  
##  4 by jane       
##  5 jane austen   
##  6 austen chapter
##  7 chapter 1     
##  8 1 it          
##  9 it is         
## 10 is a          
## # … with 122,193 more rows

3.0.5 tri-gram

d %>%
  unnest_tokens(ngram, txt, token = "ngrams", n = 3)

## # A tibble: 122,202 x 1
##    ngram              
##    <chr>              
##  1 pride and prejudice
##  2 and prejudice by   
##  3 prejudice by jane  
##  4 by jane austen     
##  5 jane austen chapter
##  6 austen chapter 1   
##  7 chapter 1 it       
##  8 1 it is            
##  9 it is a            
## 10 is a truth         
## # … with 122,192 more rows

3.0.6 character_ shingles : Defined character

d %>%
  unnest_tokens(shingle, txt, token = "character_shingles", n = 4)

## # A tibble: 536,526 x 1
##    shingle
##    <chr>  
##  1 prid   
##  2 ride   
##  3 idea   
##  4 dean   
##  5 eand   
##  6 andp   
##  7 ndpr   
##  8 dpre   
##  9 prej   
## 10 reju   
## # … with 536,516 more rows
…
library(janeaustenr)
library(dplyr)
library(stringr)

original_books <- austen_books() %>%
  group_by(book) %>%
  mutate(linenumber = row_number(),
         chapter = cumsum(str_detect(text, regex("^chapter [\\divxlc]",
                                                 ignore_case = TRUE)))) %>%
  ungroup()

original_books

## # A tibble: 73,422 x 4
##    text                    book                linenumber chapter
##    <chr>                   <fct>                    <int>   <int>
##  1 "SENSE AND SENSIBILITY" Sense & Sensibility          1       0
##  2 ""                      Sense & Sensibility          2       0
##  3 "by Jane Austen"        Sense & Sensibility          3       0
##  4 ""                      Sense & Sensibility          4       0
##  5 "(1811)"                Sense & Sensibility          5       0
##  6 ""                      Sense & Sensibility          6       0
##  7 ""                      Sense & Sensibility          7       0
##  8 ""                      Sense & Sensibility          8       0
##  9 ""                      Sense & Sensibility          9       0
## 10 "CHAPTER 1"             Sense & Sensibility         10       1
## # … with 73,412 more rows

tidy_books <- original_books %>%
  unnest_tokens(word, text)

tidy_books

## # A tibble: 725,055 x 4
##    book                linenumber chapter word       
##    <fct>                    <int>   <int> <chr>      
##  1 Sense & Sensibility          1       0 sense      
##  2 Sense & Sensibility          1       0 and        
##  3 Sense & Sensibility          1       0 sensibility
##  4 Sense & Sensibility          3       0 by         
##  5 Sense & Sensibility          3       0 jane       
##  6 Sense & Sensibility          3       0 austen     
##  7 Sense & Sensibility          5       0 1811       
##  8 Sense & Sensibility         10       1 chapter    
##  9 Sense & Sensibility         10       1 1          
## 10 Sense & Sensibility         13       1 the        
## # … with 725,045 more rows
…
tidy_books <- tidy_books %>%
  anti_join(stop_words)

## Joining, by = "word"

The stop_words dataset in the tidytext package contains stop words from three lexicons. We can use them all together, as we have here, or filter() to only use one set of stop words if that is more appropriate for a certain analysis.

3.0.6.1 Counting most common words

We canuse dplyr’s count() to find the most common words in all the books as a whole.

tidy_books %>% 
  count(word , sort =  TRUE)

## # A tibble: 13,914 x 2
##    word       n
##    <chr>  <int>
##  1 miss    1855
##  2 time    1337
##  3 fanny    862
##  4 dear     822
##  5 lady     817
##  6 sir      806
##  7 day      797
##  8 emma     787
##  9 sister   727
## 10 house    699
## # … with 13,904 more rows
…
Tidytexting and removing stop words

tidy_hgwells <- hgwells %>%
  unnest_tokens(word, text) %>%
  anti_join(stop_words)

## Joining, by = "word"

Most common words

tidy_hgwells %>% 
  count(word, sort = TRUE)

## # A tibble: 11,769 x 2
##    word       n
##    <chr>  <int>
##  1 time     454
##  2 people   302
##  3 door     260
##  4 heard    249
##  5 black    232
##  6 stood    229
##  7 white    222
##  8 hand     218
##  9 kemp     213
## 10 eyes     210
## # … with 11,759 more rows

Another works:

bronte <- gutenberg_download(c(1260, 768, 969, 9182, 767))

tidy_bronte <- bronte %>%
  unnest_tokens(word, text) %>%
  anti_join(stop_words)

## Joining, by = "word"

tidy_bronte %>%
  count(word, sort = TRUE)

## # A tibble: 23,050 x 2
##    word       n
##    <chr>  <int>
##  1 time    1065
##  2 miss     855
##  3 day      827
##  4 hand     768
##  5 eyes     713
##  6 night    647
##  7 heart    638
##  8 looked   601
##  9 door     592
## 10 half     586
## # … with 23,040 more rows
…
