Chapter 10 Tibbles: | R for Data Science Companion Book
…
Tibbles also have an enhanced print() method which makes them easier to use with large datasets containing complex objects.

Why R has many packages?

R is an old language and it’s difficult to change base R without breaking existing code, so most recent innovation occurs in packages.

10.2 Creating tibbles

Convertion from from R’s traditional dataframe to tibble

To change from R’s traditional dataframe to tibble, we use as_tibble() function:

as_tibble(iris)

## # A tibble: 150 x 5
##    Sepal.Length Sepal.Width Petal.Length Petal.Width Species
##           <dbl>       <dbl>        <dbl>       <dbl> <fct>  
##  1          5.1         3.5          1.4         0.2 setosa 
##  2          4.9         3            1.4         0.2 setosa 
##  3          4.7         3.2          1.3         0.2 setosa 
##  4          4.6         3.1          1.5         0.2 setosa 
##  5          5           3.6          1.4         0.2 setosa 
##  6          5.4         3.9          1.7         0.4 setosa 
##  7          4.6         3.4          1.4         0.3 setosa 
##  8          5           3.4          1.5         0.2 setosa 
##  9          4.4         2.9          1.4         0.2 setosa 
## 10          4.9         3.1          1.5         0.1 setosa 
## # … with 140 more rows
…
10.3.1 Printing

Tibbles have a better print method. It prints the first 10 rows, and all the columns that fit on screen.

Tibbles also have an enhanced print() method which makes them easier to use with large datasets containing complex objects.

tibble(
  a = lubridate::now() + runif(1e3) * 86400,
  b = lubridate::today() + runif(1e3) * 30,
  c = 1:1e3,
  d = runif(1e3),
  e = sample(letters, 1e3, replace = TRUE)
)

## # A tibble: 1,000 x 5
##    a                   b              c      d e    
##    <dttm>              <date>     <int>  <dbl> <chr>
##  1 2020-09-22 03:12:20 2020-10-10     1 0.348  z    
##  2 2020-09-22 05:00:03 2020-09-21     2 0.345  a    
##  3 2020-09-21 16:03:43 2020-09-25     3 0.512  l    
##  4 2020-09-21 16:15:53 2020-09-28     4 0.588  u    
##  5 2020-09-22 13:02:31 2020-10-19     5 0.226  v    
##  6 2020-09-22 11:05:12 2020-09-22     6 0.0342 i    
##  7 2020-09-22 08:27:56 2020-10-17     7 0.280  q    
##  8 2020-09-22 09:25:11 2020-10-11     8 0.406  v    
##  9 2020-09-22 12:48:54 2020-10-02     9 0.454  d    
## 10 2020-09-21 17:33:53 2020-10-05    10 0.811  g    
## # … with 990 more rows
…
Inf and -Inf stands for infinity (or negative infinity) and is a result of storing either a large number or a product that is a result of division by zero. Inf is a reserved word and is – in most cases – product of computations in R language and therefore very rarely a product of data import. Infinite also tells you that the value is not missing and a number!

Print : We can use print() function to print tibble and control number of column and width.

You can also control the default print behaviour by setting options:

options(tibble.print_max = n, tibble.print_min = m): if more than n rows, print only m rows. Use options(tibble.print_min = Inf) to always show all rows.

Use options(tibble.width = Inf) to always print all columns, regardless of the width of the screen.

nycflights13::flights %>% 
  print(n = 4)

## # A tibble: 336,776 x 19
##    year month   day dep_time sched_dep_time dep_delay arr_time sched_arr_time
##   <int> <int> <int>    <int>          <int>     <dbl>    <int>          <int>
## 1  2013     1     1      517            515         2      830            819
## 2  2013     1     1      533            529         4      850            830
## 3  2013     1     1      542            540         2      923            850
## 4  2013     1     1      544            545        -1     1004           1022
## # … with 336,772 more rows, and 11 more variables: arr_delay <dbl>,
## #   carrier <chr>, flight <int>, tailnum <chr>, origin <chr>, dest <chr>,
## #   air_time <dbl>, distance <dbl>, hour <dbl>, minute <dbl>, time_hour <dttm>
…
